A,ء
B,آ
C,أ
D,ؤ
E,إ
F,ئ
G,ا
H,ب
I,ة
J,ت
K,ث
L,ج
M,ح
N,خ
O,د
P,ذ
Q,ر
R,ز
S,س
T,ش
U,ص
V,ض
W,ط
X,ظ
Y,ع
Z,غ
a,ف
b,ق
c,ك
d,ل
e,م
f,ن
g,ه
h,و
i,ى
j,ي
k,ً
l,ٌ
m,ٍ
n,َ
o,ُ
p,ِ
q,ّ
r,ْ
s,ـ